<svg xmlns="http://www.w3.org/2000/svg" xmlns:xlink="http://www.w3.org/1999/xlink" width="195.375" height="29.46" viewBox="0 0 195.375 29.46">
    <defs>
        <clipPath id="clip-path">
            <path id="Path_35" data-name="Path 35" d="M0,1.549H195.375v-29.46H0Z" transform="translate(0 27.911)"/>
        </clipPath>
    </defs>
    <g id="Group_33" data-name="Group 33" transform="translate(0 0)" clip-path="url(#clip-path)">
        <g id="Group_32" data-name="Group 32" transform="translate(0 0)">
            <path id="Path_34" data-name="Path 34" d="M10.013.343h4.773c-.285-3.918-3.17-6.519-7.943-6.519-4.881,0-7.8,2.637-7.8,5.914,0,7.231,11.149,4.986,11.149,8.514,0,1.14-1.068,2.031-3.028,2.031-1.995,0-3.384-1.141-3.561-2.637H-1.422C-1.208,11.315,2.247,14.2,7.2,14.2c4.81,0,7.765-2.565,7.765-5.949C14.822,1.02,3.885,3.264,3.885-.334c0-1.139.963-1.887,2.814-1.887,1.959,0,3.171,1.033,3.313,2.564M-5.019-.9H-3.7V-6.139A6.842,6.842,0,0,0-9.756-2.791V-5.855h-4.987V13.88h4.987V4.049C-9.756.236-7.975-.9-5.019-.9m-13.5,6.41a11.558,11.558,0,0,0,.144-1.923c0-5.877-4.026-9.76-9.725-9.76-5.841,0-9.9,3.955-9.9,10.189,0,6.2,4.166,10.187,9.9,10.187a9.171,9.171,0,0,0,9.226-6.518h-5.379a4.067,4.067,0,0,1-3.954,2.386,4.619,4.619,0,0,1-4.738-4.561Zm-5.022-3.348h-9.369a4.582,4.582,0,0,1,4.666-4.238,4.384,4.384,0,0,1,4.7,4.238M-40.353,3.941c0-6.162-3.955-10.117-9.012-10.117a7.882,7.882,0,0,0-6.519,3.171v-2.85H-60.87V23.284h4.987V11.065A8.054,8.054,0,0,0-49.364,14.2c5.057,0,9.012-4.1,9.012-10.259m-5.094,0c0,3.741-2.529,5.878-5.236,5.878-2.671,0-5.2-2.067-5.2-5.806s2.529-5.807,5.2-5.807c2.707,0,5.236,2,5.236,5.736m-30.6-4.275c0-1.139.962-1.887,2.813-1.887,1.96,0,3.171,1.033,3.313,2.564h4.773c-.285-3.918-3.17-6.519-7.943-6.519-4.881,0-7.8,2.637-7.8,5.914,0,7.231,11.149,4.986,11.149,8.514,0,1.14-1.068,2.031-3.028,2.031-1.994,0-3.384-1.141-3.561-2.637h-5.023c.214,3.669,3.67,6.555,8.62,6.555,4.809,0,7.766-2.565,7.766-5.949C-65.109,1.02-76.044,3.264-76.044-.334M-90.186,13.881h5.023V-5.855h-5.023v2.814A7.8,7.8,0,0,0-96.7-6.176c-5.022,0-9.012,3.955-9.012,10.117s3.99,10.259,8.976,10.259a7.781,7.781,0,0,0,6.555-3.207Zm0-9.868c0,3.74-2.493,5.806-5.236,5.806-2.671,0-5.2-2.138-5.2-5.878s2.529-5.736,5.2-5.736c2.743,0,5.236,2.067,5.236,5.807M-109.35,17.121V-5.855h-4.986V17.157c0,1.317-.535,1.888-2.067,1.888h-1.425v4.239h2.209c3.81,0,6.269-1.6,6.269-6.163M-132.716-5.855v2.814a7.8,7.8,0,0,0-6.519-3.135c-5.022,0-9.011,3.955-9.011,10.117S-144.257,14.2-139.27,14.2a7.781,7.781,0,0,0,6.554-3.207v2.887h5.024V-5.855Zm0,9.868c0,3.74-2.492,5.806-5.235,5.806-2.671,0-5.2-2.138-5.2-5.878s2.53-5.736,5.2-5.736c2.743,0,5.235,2.067,5.235,5.807m-42.708-9.886h-4.987V13.88h4.987Zm9.9.018h-4.987V13.88h4.987V2.979c0-3.17,1.745-4.88,4.453-4.88,2.636,0,4.38,1.71,4.38,4.88v10.9h4.987V2.3c0-5.45-3.277-8.441-7.873-8.441A7.369,7.369,0,0,0-165.521-3.4Z" transform="translate(180.411 6.176)"/>
        </g>
    </g>
</svg>